{
    "KPlugin": {
        "BugReportUrl": "https://bugs.kde.org/enter_bug.cgi?product=systemsettings&component=kcm_notify",
        "Description": "Event Notifications and Actions",
        "Description[ar]": "إخطارات وإجراءات الحدث",
        "Description[az]": "Tədbir Bildirişləri və Əməllər",
        "Description[be]": "Апавяшчэнні пра падзеі і дзеянні",
        "Description[bg]": "Известия и действия на събития",
        "Description[ca@valencia]": "Notificacions d'esdeveniments i accions",
        "Description[ca]": "Notificacions d'esdeveniments i accions",
        "Description[cs]": "Upozornění událostí a činností",
        "Description[da]": "Bekendtgørelser og handlinger ved hændelser",
        "Description[de]": "Ereignis-Benachrichtigungen und -Aktionen",
        "Description[en_GB]": "Event Notifications and Actions",
        "Description[eo]": "Eventosciigoj kaj Agoj",
        "Description[es]": "Notificaciones y acciones de eventos",
        "Description[et]": "Sündmuste märguanded ja toimingud",
        "Description[eu]": "Gertaera-jakinarazpenak eta -ekintzak",
        "Description[fi]": "Tapahtumailmoitukset ja -toiminnot",
        "Description[fr]": "Notifications d'évènements et d'actions",
        "Description[gl]": "Notificacións e accións para eventos.",
        "Description[he]": "התראות ופעולות על אירועים",
        "Description[hi]": "कार्यक्रम सूचनाएं और कार्रवाइयां",
        "Description[hu]": "Eseményértesítések és műveletek",
        "Description[ia]": "Notificationes de evento e Actiones",
        "Description[id]": "Aksi dan Notifikasi peristiwa",
        "Description[is]": "Tilkynningar um atburði og aðgerðir",
        "Description[it]": "Notifiche degli eventi e azioni",
        "Description[ja]": "イベントの通知とアクション",
        "Description[ka]": "მოვლენის შეტყობინებები და ქმედებები",
        "Description[ko]": "이벤트 알림과 동작",
        "Description[lt]": "Pranešimai apie įvykius ir veiksmai",
        "Description[lv]": "Notikumu paziņojumi un darbības",
        "Description[nl]": "Meldingen en acties van gebeurtenissen",
        "Description[nn]": "Varslingar og handlingar for hendingar",
        "Description[pa]": "ਈਵੈਂਟ ਨੋਟੀਫਿਕੇਸ਼ਨ ਅਤੇ ਕਾਰਵਾਈਆਂ",
        "Description[pl]": "Powiadomienia i działania zdarzeń",
        "Description[pt]": "Notificações de Eventos e Acções",
        "Description[pt_BR]": "Notificações e ações dos eventos",
        "Description[ro]": "Notificări și acțiuni pentru evenimente",
        "Description[ru]": "Уведомления и действия при событиях",
        "Description[sa]": "घटना अधिसूचना एवं क्रियाएँ",
        "Description[sk]": "Oznámenia o udalostiach a akciách",
        "Description[sl]": "Obvestila o dogodkih in dejavnosti",
        "Description[sv]": "Underrättelser om händelser och åtgärder",
        "Description[ta]": "அறிவிப்புகளும் அவற்றிற்கான செயல்களும்",
        "Description[tr]": "Etkinlik Bildirimleri ve Eylemler",
        "Description[uk]": "Сповіщення щодо подій та дії",
        "Description[vi]": "Thông báo và hành động cho sự kiện",
        "Description[x-test]": "xxEvent Notifications and Actionsxx",
        "Description[zh_CN]": "事件通知和操作",
        "Description[zh_TW]": "事件通知與動作",
        "FormFactors": [
            "tablet",
            "handset",
            "desktop"
        ],
        "Icon": "preferences-desktop-notification-bell",
        "Name": "Notifications",
        "Name[ar]": "إخطارات",
        "Name[ast]": "Avisos",
        "Name[az]": "Bildirilşlər",
        "Name[be@latin]": "Infarmavańnie",
        "Name[be]": "Апавяшчэнні",
        "Name[bg]": "Известия",
        "Name[bn]": "বিজ্ঞপ্তি",
        "Name[bn_IN]": "সূচনাবার্তা",
        "Name[br]": "Kemenn",
        "Name[bs]": "Obavještenja",
        "Name[ca@valencia]": "Notificacions",
        "Name[ca]": "Notificacions",
        "Name[cs]": "Upozornění",
        "Name[csb]": "Dôwanié wiédzë",
        "Name[da]": "Bekendtgørelser",
        "Name[de]": "Benachrichtigungen",
        "Name[el]": "Ειδοποιήσεις",
        "Name[en_GB]": "Notifications",
        "Name[eo]": "Atentigoj",
        "Name[es]": "Notificaciones",
        "Name[et]": "Märguanded",
        "Name[eu]": "Jakinarazpenak",
        "Name[fa]": "اخطارها",
        "Name[fi]": "Ilmoitukset",
        "Name[fr]": "Notifications",
        "Name[fy]": "Notifikaasjes",
        "Name[ga]": "Fógairt",
        "Name[gl]": "Notificacións",
        "Name[gu]": "નોંધણીઓ",
        "Name[he]": "התראות",
        "Name[hi]": "सूचनाएँ",
        "Name[hne]": "सूचना मन ल",
        "Name[hr]": "Obavijesti",
        "Name[hsb]": "Zdźělenki",
        "Name[hu]": "Rendszerüzenetek",
        "Name[ia]": "Notificationes",
        "Name[id]": "Notifikasi",
        "Name[is]": "Tilkynningar",
        "Name[it]": "Notifiche",
        "Name[ja]": "通知",
        "Name[ka]": "გაფრთხილებები",
        "Name[kk]": "Құлақтандыру",
        "Name[km]": "សេចក្តី​ជូន​ដំណឹង​",
        "Name[kn]": "ಸೂಚನೆಗಳು",
        "Name[ko]": "알림",
        "Name[ku]": "Agahdarî",
        "Name[lt]": "Pranešimai",
        "Name[lv]": "Paziņojumi",
        "Name[mai]": "सूचनासभ",
        "Name[mk]": "Известувања",
        "Name[ml]": "അറിയിപ്പുകള്‍",
        "Name[mr]": "सूचना",
        "Name[ms]": "Pemberitahuan",
        "Name[nb]": "Varslinger",
        "Name[nds]": "Bescheden",
        "Name[ne]": "सूचना",
        "Name[nl]": "Meldingen",
        "Name[nn]": "Varslingar",
        "Name[oc]": "Notificacions",
        "Name[or]": "ବିଜ୍ଞପ୍ତି",
        "Name[pa]": "ਨੋਟੀਫਿਕੇਸ਼ਨ",
        "Name[pl]": "Powiadomienia",
        "Name[pt]": "Notificações",
        "Name[pt_BR]": "Notificações",
        "Name[ro]": "Notificări",
        "Name[ru]": "Уведомления",
        "Name[sa]": "अधिसूचना",
        "Name[se]": "Dieđáhusat",
        "Name[si]": "දැනුම් දීම්",
        "Name[sk]": "Upozornenia",
        "Name[sl]": "Obvestila",
        "Name[sr@ijekavian]": "обавјештења",
        "Name[sr@ijekavianlatin]": "obavještenja",
        "Name[sr@latin]": "obaveštenja",
        "Name[sr]": "обавештења",
        "Name[sv]": "Underrättelser",
        "Name[ta]": "அறிவிப்புகள்",
        "Name[te]": "నోటీసులు",
        "Name[tg]": "Огоҳиҳо",
        "Name[th]": "การแจ้งให้ทราบต่าง ๆ",
        "Name[tok]": "mu ilo",
        "Name[tr]": "Bildirimler",
        "Name[ug]": "ئۇقتۇرۇشلار",
        "Name[uk]": "Сповіщення",
        "Name[uz@cyrillic]": "Хабарномалар",
        "Name[uz]": "Xabarnomalar",
        "Name[vi]": "Thông báo",
        "Name[wa]": "Notifiaedjes",
        "Name[x-test]": "xxNotificationsxx",
        "Name[zh_CN]": "通知",
        "Name[zh_TW]": "通知"
    },
    "X-DocPath": "kcontrol/notifications/index.html",
    "X-KDE-System-Settings-Parent-Category": "applications",
    "X-KDE-Weight": 20,
    "X-KDE_Keywords": "System sounds,Audio,Sound,Notify,Alerts,Notification,popups,disturb,do not disturb,quiet,concentrate,concentration,alarm,popup,pop up,progress,badges,alert sounds,warning sounds,dnd,mute"
}
