{
    "KPlugin": {
        "BugReportUrl": "https://bugs.kde.org/enter_bug.cgi?product=systemsettings&component=kcm_soundtheme",
        "Description": "Select a Sound Theme for Notifications",
        "Description[ar]": "حدد سمة صوتية لإشعارات",
        "Description[bg]": "Изберете звукова тема за Известия",
        "Description[ca@valencia]": "Seleccioneu un tema de so per a les notificacions",
        "Description[ca]": "Selecció d'un tema de so per a les notificacions",
        "Description[cs]": "Vyberte zvukový motiv upozornění",
        "Description[eo]": "Elekti Sonetoson por Atentigoj",
        "Description[es]": "Seleccionar un tema de sonido para las notificaciones",
        "Description[eu]": "Hautatu jakinarazpenetarako soinu-gai bat",
        "Description[fi]": "Valitse ilmoitusten ääniteema",
        "Description[fr]": "Sélectionner un thème sonore pour les notifications",
        "Description[gl]": "Seleccionar un tema de son para as notificacións.",
        "Description[he]": "בחירת ערכת צלילים להתראות",
        "Description[hu]": "Hangtéma kiválasztása az értesítésekhez",
        "Description[ia]": "Selectiona un Thema de Sono per Notificationes",
        "Description[is]": "Velja hljóðþema fyrir tilkynningar",
        "Description[it]": "Seleziona un tema sonoro per le notifiche",
        "Description[ja]": "通知のためのサウンドテーマを選択",
        "Description[ka]": "აირჩიეთ შეტყობინებების ხმის თემა",
        "Description[ko]": "알림 소리 테마 선택",
        "Description[lt]": "Pasirinkti pranešimų garso apipavidalinimus",
        "Description[lv]": "Atlasiet paziņojumu skaņas motīvu",
        "Description[nl]": "Een geluidsthema selecteren voor meldingen",
        "Description[nn]": "Vel lydtema for varslingar",
        "Description[pa]": "ਨੋਟੀਫਿਕੇਸ਼ਨ ਲਈ ਆਵਾਜ਼ ਥੀਮ ਚੁਣੋ",
        "Description[pl]": "Wybierz zestaw dźwiękowy dla powiadomień",
        "Description[ru]": "Выбор набора звуков уведомлений",
        "Description[sa]": "सूचनानां कृते एकं ध्वनिविषयं चिनोतु",
        "Description[sk]": "Výber zvukovej témy pre oznámenia",
        "Description[sl]": "Izberite temo zvokov za obvestila",
        "Description[ta]": "அறிவிப்புகளுக்கான ஒலித்திட்டத்தை அமையுங்கள்",
        "Description[tr]": "Bildirimler için bir ses teması seçin",
        "Description[uk]": "Вибір звукової теми для сповіщень",
        "Description[x-test]": "xxSelect a Sound Theme for Notificationsxx",
        "Description[zh_CN]": "选择通知的声音主题",
        "Description[zh_TW]": "選擇通知用的音效主題",
        "Icon": "emblem-music-symbolic",
        "Name": "System Sounds",
        "Name[ar]": "أصوات النظام",
        "Name[ast]": "Soníos del sistema",
        "Name[bg]": "Системни звуци",
        "Name[ca@valencia]": "Sons del sistema",
        "Name[ca]": "Sons del sistema",
        "Name[cs]": "Systémové zvuky",
        "Name[de]": "Systemklänge",
        "Name[eo]": "Sistemsonoj",
        "Name[es]": "Sonidos del sistema",
        "Name[eu]": "Sistemaren soinuak",
        "Name[fi]": "Järjestelmä-äänet",
        "Name[fr]": "Sons du système",
        "Name[gl]": "Sons do sistema",
        "Name[he]": "צלילי המערכת",
        "Name[hu]": "Rendszerhangok",
        "Name[ia]": "Sonos de systema",
        "Name[is]": "Kerfishljóð",
        "Name[it]": "Suoni di sistema",
        "Name[ja]": "システム音",
        "Name[ka]": "სისტემური ხმები",
        "Name[ko]": "시스템 소리",
        "Name[lt]": "Sistemos garsai",
        "Name[lv]": "Sistēmas skaņas",
        "Name[nl]": "Systeemgeluiden",
        "Name[nn]": "Systemlydar",
        "Name[pa]": "ਸਿਸਟਮ ਆਵਾਜ਼ਾਂ",
        "Name[pl]": "Dźwięki systemowe",
        "Name[ru]": "Системные звуки",
        "Name[sa]": "तन्त्र ध्वनयः",
        "Name[sk]": "Systémové zvuky",
        "Name[sl]": "Sistemski zvoki",
        "Name[ta]": "கணினி ஒலிகள்",
        "Name[tok]": "kalama mu",
        "Name[tr]": "Sistem Sesleri",
        "Name[uk]": "Системні звуки",
        "Name[x-test]": "xxSystem Soundsxx",
        "Name[zh_CN]": "系统声音",
        "Name[zh_TW]": "系統音效"
    },
    "X-KDE-System-Settings-Parent-Category": "themes",
    "X-KDE-Weight": 90,
    "X-KDE_Keywords": "system sounds,sound theme,sound,sounds,alert,notification,bell"
}
