{
    "KPlugin": {
        "Description": "XML Data from NOAA's National Weather Service",
        "Description[ar]": "بيانات XML من خدمة الطقس الوطنية التابعة لـ NOAA",
        "Description[az]": "ABŞ Milli Hava Xidmətindən (NOAA) XML formatında məlumatlar",
        "Description[be]": "XML-даныя ад Нацыянальнай службы надвор'я (NOAA)",
        "Description[bg]": "XML данни от метеорологична станция NOAA",
        "Description[ca@valencia]": "Dades XML del servei meteorològic nacional de NOAA",
        "Description[ca]": "Dades XML del servei meteorològic nacional de NOAA",
        "Description[cs]": "XML data služby o počasí agentury NOAA",
        "Description[da]": "XML-data fra NOAAs nationale vejrtjeneste",
        "Description[de]": "XML-Daten von NOAA's nationalem Wetterdienst",
        "Description[en_GB]": "XML Data from NOAA's National Weather Service",
        "Description[eo]": "XML-datumoj el la NOAA nacia vetera servo",
        "Description[es]": "Datos XML del servicio nacional meteorológico norteamericano NOAA",
        "Description[et]": "NOAA riikliku ilmateenistuse XML-andmed",
        "Description[eu]": "NOAA-ren Eguraldi Zerbitzu Nazionaleko XML datuak",
        "Description[fi]": "XML-tietoa NOAA:n kansalliselta sääpalvelulta",
        "Description[fr]": "Données « XML » du service météorologique national du NOAA",
        "Description[gl]": "Datos XML do Servizo meteorolóxico nacional da NOAA.",
        "Description[he]": "נתוני XML משירות מזג האוויר הלאומי NOAA (ארה״ב)",
        "Description[hi]": "एनओएए के राष्ट्रीय मौसम सेवा से एक्सएमएल डाटा",
        "Description[hu]": "XML adatok a NOAA időjárásjelző szolgálattól",
        "Description[ia]": "Datos XML ex Servicio National Meteorologic NOAA",
        "Description[id]": "Data XML dari NOAA's National Weather Service",
        "Description[is]": "XML-gögn frá NOAA-veðurstofunni",
        "Description[it]": "Dati XML dal servizio meteorologico nazionale del NOAA",
        "Description[ja]": "NOAA (アメリカ海洋大気圏局) National Weather Service の XML データ",
        "Description[ka]": "XML მონაცემების NOAA-ის ნაციონალური ამინდის სერვისისგან",
        "Description[ko]": "NOAA 미국 기상 서비스의 XML 데이터",
        "Description[lt]": "XML duomenys iš NOAA nacionalinės orų tarnybos",
        "Description[lv]": "XML dati no NOAA Nacionālā Laikapstākļu meteoroloģiskā dienesta",
        "Description[nl]": "XML-gegevens van NOAA's nationale weerdienst",
        "Description[nn]": "XML-data frå NOAAs amerikanske vêrteneste",
        "Description[pa]": "NOAA ਦੀ ਕੌਮੀ ਮੌਸਮ ਸਰਵਿਸ ਤੋਂ XML ਡਾਟਾ",
        "Description[pl]": "Dane XML z Narodowej Usługi Pogodowej NOAA",
        "Description[pt]": "Dados em XML do Serviço Meteorológico Nacional da NOAA",
        "Description[pt_BR]": "Dados em XML do Serviço Meteorológico Nacional da NOAA",
        "Description[ro]": "Date XML de la „NOAA's National Weather Service”",
        "Description[ru]": "Данные в формате XML от NOAA",
        "Description[sa]": "NOAA इत्यस्य राष्ट्रियमौसमसेवायाः XML Data",
        "Description[sk]": "XML dáta z NOAA National Weather Service",
        "Description[sl]": "Podatki XML od NOAA's National Weather Service",
        "Description[sv]": "XML-data från NOAA:s nationella vädertjänst",
        "Description[ta]": "NOAA-இன் தேசிய வானிலை சேவை வழங்கும் XML தரவு",
        "Description[tr]": "NOAA Ulusal Hava Durumu Hizmeti'nden XML Verisi",
        "Description[uk]": "Дані XML з національної служби погоди NOAA",
        "Description[vi]": "Dữ liệu XML từ Dịch vụ Thời tiết Quốc gia của NOAA",
        "Description[x-test]": "xxXML Data from NOAA's National Weather Servicexx",
        "Description[zh_CN]": "NOAA 国家天气服务提供的 XML 数据",
        "Description[zh_TW]": "來自 NOAA 國家天氣服務的 XML 資料",
        "Icon": "noneyet",
        "Name": "NOAA's National Weather Service",
        "Name[ar]": "خدمة الطقس الوطنية NOAA ",
        "Name[az]": "ABŞ Milli Hava Xidməti, NOAA",
        "Name[be@latin]": "Nacyjanalnaja słužba nadvorja „NOAA”",
        "Name[be]": "Нацыянальная служба надвор'я NOAA",
        "Name[bg]": "Метеорологична станция NOAA",
        "Name[bs]": "NOAA‑ova nacionalna meteorološka služba",
        "Name[ca@valencia]": "Servei meteorològic nacional de NOAA",
        "Name[ca]": "Servei meteorològic nacional de NOAA",
        "Name[cs]": "Informační služba o počasí agentury NOAA",
        "Name[da]": "NOAAs nationale vejrtjeneste",
        "Name[de]": "NOAA's nationaler Wetterdienst",
        "Name[el]": "Υπηρεσία καιρού NOAA",
        "Name[en_GB]": "NOAA's National Weather Service",
        "Name[eo]": "Nacia veterservo de NOAA",
        "Name[es]": "Servicio nacional norteamericano NOAA",
        "Name[et]": "NOAA riiklik ilmateenistus",
        "Name[eu]": "NOAA Eguraldi Zerbitzu Nazionala",
        "Name[fi]": "NOAA:n kansallinen sääpalvelu",
        "Name[fr]": "Service météo national du NOAA",
        "Name[fy]": "NOAA's nasjonale waar tsjinst",
        "Name[ga]": "Seirbhís Náisiúnta na hAimsire de chuid NOAA",
        "Name[gl]": "Servizo meteorolóxico nacional da NOAA",
        "Name[gu]": "NOAA ની નેશનલ વેધર સર્વિસ",
        "Name[he]": "שירות מזג האוויר הלאומי NOAA (ארה״ב)",
        "Name[hi]": "एनओएए के राष्ट्रीय मौसम सेवा",
        "Name[hne]": "एनओएए के रास्ट्रीय मौसम सेवा",
        "Name[hr]": "NOAA-ova usluga nacionalne vremenske proznoze",
        "Name[hu]": "NOAA időjárásjelző szolgálat",
        "Name[ia]": "Servicio Meteorologic National NOAA",
        "Name[id]": "Layanan Cuaca NOAA's",
        "Name[is]": "NOAA veðurstofan",
        "Name[it]": "Servizio meteorologico nazionale del NOAA",
        "Name[ja]": "NOAA National Weather Service",
        "Name[ka]": "NOAA-ის ამინდის ნაციონალური სერვისი",
        "Name[kk]": "NOAA Ұлттық ауа райы қызметі",
        "Name[km]": "សេវា​អាកាសធាតុ​ជាតិ​របស់ NOAA",
        "Name[kn]": "NOAA ದ ರಾಷ್ಟ್ರೀಯ ಹವಾಮಾನ ಸೇವೆ",
        "Name[ko]": "NOAA 미국 기상 서비스",
        "Name[lt]": "NOAA nacionalinė orų tarnyba",
        "Name[lv]": "NOAA's Nacionālais meteoroloģiskais dienests",
        "Name[mk]": "Национален сервис за време на NOAA",
        "Name[ml]": "നോആ-യുടെ ദേശീയ കാലവസ്ഥാ സേവനം",
        "Name[mr]": "NOAA ची राष्ट्रीय हवामान सेवा",
        "Name[nb]": "NOAAs nasjonale værtjeneste",
        "Name[nds]": "Wederdeenst vun't US-Ozeaankunn- un Wederamt",
        "Name[ne]": "NOAA को राष्ट्रिय मौसम सेवा",
        "Name[nl]": "NOAA's nationale weerdienst",
        "Name[nn]": "NOAAs amerikanske vêrteneste",
        "Name[pa]": "NOAA ਦੀ ਕੌਮੀ ਮੌਸਮ ਸਰਵਿਸ",
        "Name[pl]": "Narodowa Usługa Pogodowa NOAA",
        "Name[pt]": "Serviço Meteorológico Nacional da NOAA",
        "Name[pt_BR]": "Serviço Meteorológico Nacional da NOAA",
        "Name[ro]": "NOAA's National Weather Service",
        "Name[ru]": "Национальная служба погоды США",
        "Name[sa]": "NOAA इत्यस्य राष्ट्रियमौसमसेवा",
        "Name[se]": "NOAA amerihkálaš dálkebálvalus",
        "Name[si]": "NOAA's ජාතික කාලගුණ සේවාව",
        "Name[sk]": "Počasie - NOAA National Weather Service",
        "Name[sl]": "NOAA's National Weather Service",
        "Name[sr@ijekavian]": "НОАА‑ова национална метеоролошка служба",
        "Name[sr@ijekavianlatin]": "NOAA‑ova nacionalna meteorološka služba",
        "Name[sr@latin]": "NOAA‑ova nacionalna meteorološka služba",
        "Name[sr]": "НОАА‑ова национална метеоролошка служба",
        "Name[sv]": "NOAA:s nationella vädertjänst",
        "Name[ta]": "NOAA-வின் தேசிய வானிலை சேவை",
        "Name[te]": "NOAA యొక్క జాతీయ వాతావరణ సేవ",
        "Name[th]": "บริการพยากรณ์อากาศสากล NOAA",
        "Name[tok]": "ilo kon pi ma Mewika",
        "Name[tr]": "NOAA Ulusal Hava Durumu Hizmeti",
        "Name[ug]": "NOAA تەمىنلىگەن دۆلەت ھاۋارايى مۇلازىمىتى",
        "Name[uk]": "Національна служба погоди NOAA",
        "Name[vi]": "Dịch vụ Thời tiết Quốc gia của NOAA",
        "Name[wa]": "NOAA's National Weather Service",
        "Name[x-test]": "xxNOAA's National Weather Servicexx",
        "Name[zh_CN]": "NOAA 美国天气服务",
        "Name[zh_TW]": "NOAA 的國家天氣服務"
    },
    "X-KDE-ParentApp": "weatherengine"
}
